sim/ram_wave.vcd
$date
	Tue Sep 24 10:39:15 2024
$end
$version
	Icarus Verilog
$end
$timescale
	1s
$end
$scope module ram_tb $end
$var wire 9 ! q [8:0] $end
$var reg 7 " addr [6:0] $end
$var reg 1 # clk $end
$var reg 9 $ data [8:0] $end
$var reg 1 % rst_n $end
$var reg 1 & wr_en $end
$var integer 32 ' i [31:0] $end
$scope module u_dut $end
$var wire 7 ( addr [6:0] $end
$var wire 1 # clk $end
$var wire 9 ) data [8:0] $end
$var wire 1 % rst_n $end
$var wire 1 & wr_en $end
$var wire 128 * wr_sel [127:0] $end
$var parameter 7 + ADDR_00 $end
$var parameter 7 , ADDR_01 $end
$var parameter 7 - ADDR_02 $end
$var parameter 7 . ADDR_03 $end
$var parameter 7 / ADDR_04 $end
$var parameter 7 0 ADDR_05 $end
$var parameter 7 1 ADDR_06 $end
$var parameter 7 2 ADDR_07 $end
$var parameter 7 3 ADDR_08 $end
$var parameter 7 4 ADDR_09 $end
$var parameter 7 5 ADDR_0A $end
$var parameter 7 6 ADDR_0B $end
$var parameter 7 7 ADDR_0C $end
$var parameter 7 8 ADDR_0D $end
$var parameter 7 9 ADDR_0E $end
$var parameter 7 : ADDR_0F $end
$var parameter 7 ; ADDR_10 $end
$var parameter 7 < ADDR_11 $end
$var parameter 7 = ADDR_12 $end
$var parameter 7 > ADDR_13 $end
$var parameter 7 ? ADDR_14 $end
$var parameter 7 @ ADDR_15 $end
$var parameter 7 A ADDR_16 $end
$var parameter 7 B ADDR_17 $end
$var parameter 7 C ADDR_18 $end
$var parameter 7 D ADDR_19 $end
$var parameter 7 E ADDR_1A $end
$var parameter 7 F ADDR_1B $end
$var parameter 7 G ADDR_1C $end
$var parameter 7 H ADDR_1D $end
$var parameter 7 I ADDR_1E $end
$var parameter 7 J ADDR_1F $end
$var parameter 7 K ADDR_20 $end
$var parameter 7 L ADDR_21 $end
$var parameter 7 M ADDR_22 $end
$var parameter 7 N ADDR_23 $end
$var parameter 7 O ADDR_24 $end
$var parameter 7 P ADDR_25 $end
$var parameter 7 Q ADDR_26 $end
$var parameter 7 R ADDR_27 $end
$var parameter 7 S ADDR_28 $end
$var parameter 7 T ADDR_29 $end
$var parameter 7 U ADDR_2A $end
$var parameter 7 V ADDR_2B $end
$var parameter 7 W ADDR_2C $end
$var parameter 7 X ADDR_2D $end
$var parameter 7 Y ADDR_2E $end
$var parameter 7 Z ADDR_2F $end
$var parameter 7 [ ADDR_30 $end
$var parameter 7 \ ADDR_31 $end
$var parameter 7 ] ADDR_32 $end
$var parameter 7 ^ ADDR_33 $end
$var parameter 7 _ ADDR_34 $end
$var parameter 7 ` ADDR_35 $end
$var parameter 7 a ADDR_36 $end
$var parameter 7 b ADDR_37 $end
$var parameter 7 c ADDR_38 $end
$var parameter 7 d ADDR_39 $end
$var parameter 7 e ADDR_3A $end
$var parameter 7 f ADDR_3B $end
$var parameter 7 g ADDR_3C $end
$var parameter 7 h ADDR_3D $end
$var parameter 7 i ADDR_3E $end
$var parameter 7 j ADDR_3F $end
$var parameter 7 k ADDR_40 $end
$var parameter 7 l ADDR_41 $end
$var parameter 7 m ADDR_42 $end
$var parameter 7 n ADDR_43 $end
$var parameter 7 o ADDR_44 $end
$var parameter 7 p ADDR_45 $end
$var parameter 7 q ADDR_46 $end
$var parameter 7 r ADDR_47 $end
$var parameter 7 s ADDR_48 $end
$var parameter 7 t ADDR_49 $end
$var parameter 7 u ADDR_4A $end
$var parameter 7 v ADDR_4B $end
$var parameter 7 w ADDR_4C $end
$var parameter 7 x ADDR_4D $end
$var parameter 7 y ADDR_4E $end
$var parameter 7 z ADDR_4F $end
$var parameter 7 { ADDR_50 $end
$var parameter 7 | ADDR_51 $end
$var parameter 7 } ADDR_52 $end
$var parameter 7 ~ ADDR_53 $end
$var parameter 7 !" ADDR_54 $end
$var parameter 7 "" ADDR_55 $end
$var parameter 7 #" ADDR_56 $end
$var parameter 7 $" ADDR_57 $end
$var parameter 7 %" ADDR_58 $end
$var parameter 7 &" ADDR_59 $end
$var parameter 7 '" ADDR_5A $end
$var parameter 7 (" ADDR_5B $end
$var parameter 7 )" ADDR_5C $end
$var parameter 7 *" ADDR_5D $end
$var parameter 7 +" ADDR_5E $end
$var parameter 7 ," ADDR_5F $end
$var parameter 7 -" ADDR_60 $end
$var parameter 7 ." ADDR_61 $end
$var parameter 7 /" ADDR_62 $end
$var parameter 7 0" ADDR_63 $end
$var parameter 7 1" ADDR_64 $end
$var parameter 7 2" ADDR_65 $end
$var parameter 7 3" ADDR_66 $end
$var parameter 7 4" ADDR_67 $end
$var parameter 7 5" ADDR_68 $end
$var parameter 7 6" ADDR_69 $end
$var parameter 7 7" ADDR_6A $end
$var parameter 7 8" ADDR_6B $end
$var parameter 7 9" ADDR_6C $end
$var parameter 7 :" ADDR_6D $end
$var parameter 7 ;" ADDR_6E $end
$var parameter 7 <" ADDR_6F $end
$var parameter 7 =" ADDR_70 $end
$var parameter 7 >" ADDR_71 $end
$var parameter 7 ?" ADDR_72 $end
$var parameter 7 @" ADDR_73 $end
$var parameter 7 A" ADDR_74 $end
$var parameter 7 B" ADDR_75 $end
$var parameter 7 C" ADDR_76 $end
$var parameter 7 D" ADDR_77 $end
$var parameter 7 E" ADDR_78 $end
$var parameter 7 F" ADDR_79 $end
$var parameter 7 G" ADDR_7A $end
$var parameter 7 H" ADDR_7B $end
$var parameter 7 I" ADDR_7C $end
$var parameter 7 J" ADDR_7D $end
$var parameter 7 K" ADDR_7E $end
$var parameter 7 L" ADDR_7F $end
$var reg 9 M" addr_00 [8:0] $end
$var reg 9 N" addr_01 [8:0] $end
$var reg 9 O" addr_02 [8:0] $end
$var reg 9 P" addr_03 [8:0] $end
$var reg 9 Q" addr_04 [8:0] $end
$var reg 9 R" addr_05 [8:0] $end
$var reg 9 S" addr_06 [8:0] $end
$var reg 9 T" addr_07 [8:0] $end
$var reg 9 U" addr_08 [8:0] $end
$var reg 9 V" addr_09 [8:0] $end
$var reg 9 W" addr_0a [8:0] $end
$var reg 9 X" addr_0b [8:0] $end
$var reg 9 Y" addr_0c [8:0] $end
$var reg 9 Z" addr_0d [8:0] $end
$var reg 9 [" addr_0e [8:0] $end
$var reg 9 \" addr_0f [8:0] $end
$var reg 9 ]" addr_10 [8:0] $end
$var reg 9 ^" addr_11 [8:0] $end
$var reg 9 _" addr_12 [8:0] $end
$var reg 9 `" addr_13 [8:0] $end
$var reg 9 a" addr_14 [8:0] $end
$var reg 9 b" addr_15 [8:0] $end
$var reg 9 c" addr_16 [8:0] $end
$var reg 9 d" addr_17 [8:0] $end
$var reg 9 e" addr_18 [8:0] $end
$var reg 9 f" addr_19 [8:0] $end
$var reg 9 g" addr_1a [8:0] $end
$var reg 9 h" addr_1b [8:0] $end
$var reg 9 i" addr_1c [8:0] $end
$var reg 9 j" addr_1d [8:0] $end
$var reg 9 k" addr_1e [8:0] $end
$var reg 9 l" addr_1f [8:0] $end
$var reg 9 m" addr_20 [8:0] $end
$var reg 9 n" addr_21 [8:0] $end
$var reg 9 o" addr_22 [8:0] $end
$var reg 9 p" addr_23 [8:0] $end
$var reg 9 q" addr_24 [8:0] $end
$var reg 9 r" addr_25 [8:0] $end
$var reg 9 s" addr_26 [8:0] $end
$var reg 9 t" addr_27 [8:0] $end
$var reg 9 u" addr_28 [8:0] $end
$var reg 9 v" addr_29 [8:0] $end
$var reg 9 w" addr_2a [8:0] $end
$var reg 9 x" addr_2b [8:0] $end
$var reg 9 y" addr_2c [8:0] $end
$var reg 9 z" addr_2d [8:0] $end
$var reg 9 {" addr_2e [8:0] $end
$var reg 9 |" addr_2f [8:0] $end
$var reg 9 }" addr_30 [8:0] $end
$var reg 9 ~" addr_31 [8:0] $end
$var reg 9 !# addr_32 [8:0] $end
$var reg 9 "# addr_33 [8:0] $end
$var reg 9 ## addr_34 [8:0] $end
$var reg 9 $# addr_35 [8:0] $end
$var reg 9 %# addr_36 [8:0] $end
$var reg 9 &# addr_37 [8:0] $end
$var reg 9 '# addr_38 [8:0] $end
$var reg 9 (# addr_39 [8:0] $end
$var reg 9 )# addr_3a [8:0] $end
$var reg 9 *# addr_3b [8:0] $end
$var reg 9 +# addr_3c [8:0] $end
$var reg 9 ,# addr_3d [8:0] $end
$var reg 9 -# addr_3e [8:0] $end
$var reg 9 .# addr_3f [8:0] $end
$var reg 9 /# addr_40 [8:0] $end
$var reg 9 0# addr_41 [8:0] $end
$var reg 9 1# addr_42 [8:0] $end
$var reg 9 2# addr_43 [8:0] $end
$var reg 9 3# addr_44 [8:0] $end
$var reg 9 4# addr_45 [8:0] $end
$var reg 9 5# addr_46 [8:0] $end
$var reg 9 6# addr_47 [8:0] $end
$var reg 9 7# addr_48 [8:0] $end
$var reg 9 8# addr_49 [8:0] $end
$var reg 9 9# addr_4a [8:0] $end
$var reg 9 :# addr_4b [8:0] $end
$var reg 9 ;# addr_4c [8:0] $end
$var reg 9 <# addr_4d [8:0] $end
$var reg 9 =# addr_4e [8:0] $end
$var reg 9 ># addr_4f [8:0] $end
$var reg 9 ?# addr_50 [8:0] $end
$var reg 9 @# addr_51 [8:0] $end
$var reg 9 A# addr_52 [8:0] $end
$var reg 9 B# addr_53 [8:0] $end
$var reg 9 C# addr_54 [8:0] $end
$var reg 9 D# addr_55 [8:0] $end
$var reg 9 E# addr_56 [8:0] $end
$var reg 9 F# addr_57 [8:0] $end
$var reg 9 G# addr_58 [8:0] $end
$var reg 9 H# addr_59 [8:0] $end
$var reg 9 I# addr_5a [8:0] $end
$var reg 9 J# addr_5b [8:0] $end
$var reg 9 K# addr_5c [8:0] $end
$var reg 9 L# addr_5d [8:0] $end
$var reg 9 M# addr_5e [8:0] $end
$var reg 9 N# addr_5f [8:0] $end
$var reg 9 O# addr_60 [8:0] $end
$var reg 9 P# addr_61 [8:0] $end
$var reg 9 Q# addr_62 [8:0] $end
$var reg 9 R# addr_63 [8:0] $end
$var reg 9 S# addr_64 [8:0] $end
$var reg 9 T# addr_65 [8:0] $end
$var reg 9 U# addr_66 [8:0] $end
$var reg 9 V# addr_67 [8:0] $end
$var reg 9 W# addr_68 [8:0] $end
$var reg 9 X# addr_69 [8:0] $end
$var reg 9 Y# addr_6a [8:0] $end
$var reg 9 Z# addr_6b [8:0] $end
$var reg 9 [# addr_6c [8:0] $end
$var reg 9 \# addr_6d [8:0] $end
$var reg 9 ]# addr_6e [8:0] $end
$var reg 9 ^# addr_6f [8:0] $end
$var reg 9 _# addr_70 [8:0] $end
$var reg 9 `# addr_71 [8:0] $end
$var reg 9 a# addr_72 [8:0] $end
$var reg 9 b# addr_73 [8:0] $end
$var reg 9 c# addr_74 [8:0] $end
$var reg 9 d# addr_75 [8:0] $end
$var reg 9 e# addr_76 [8:0] $end
$var reg 9 f# addr_77 [8:0] $end
$var reg 9 g# addr_78 [8:0] $end
$var reg 9 h# addr_79 [8:0] $end
$var reg 9 i# addr_7a [8:0] $end
$var reg 9 j# addr_7b [8:0] $end
$var reg 9 k# addr_7c [8:0] $end
$var reg 9 l# addr_7d [8:0] $end
$var reg 9 m# addr_7e [8:0] $end
$var reg 9 n# addr_7f [8:0] $end
$var reg 9 o# q [8:0] $end
$var reg 128 p# reg_sel [127:0] $end
$upscope $end
$scope task check_wr $end
$var reg 7 q# in_addr [6:0] $end
$var reg 9 r# in_data [8:0] $end
$upscope $end
$upscope $end
$enddefinitions $end
$comment Show the parameter values. $end
$dumpall
b1111111 L"
b1111110 K"
b1111101 J"
b1111100 I"
b1111011 H"
b1111010 G"
b1111001 F"
b1111000 E"
b1110111 D"
b1110110 C"
b1110101 B"
b1110100 A"
b1110011 @"
b1110010 ?"
b1110001 >"
b1110000 ="
b1101111 <"
b1101110 ;"
b1101101 :"
b1101100 9"
b1101011 8"
b1101010 7"
b1101001 6"
b1101000 5"
b1100111 4"
b1100110 3"
b1100101 2"
b1100100 1"
b1100011 0"
b1100010 /"
b1100001 ."
b1100000 -"
b1011111 ,"
b1011110 +"
b1011101 *"
b1011100 )"
b1011011 ("
b1011010 '"
b1011001 &"
b1011000 %"
b1010111 $"
b1010110 #"
b1010101 ""
b1010100 !"
b1010011 ~
b1010010 }
b1010001 |
b1010000 {
b1001111 z
b1001110 y
b1001101 x
b1001100 w
b1001011 v
b1001010 u
b1001001 t
b1001000 s
b1000111 r
b1000110 q
b1000101 p
b1000100 o
b1000011 n
b1000010 m
b1000001 l
b1000000 k
b111111 j
b111110 i
b111101 h
b111100 g
b111011 f
b111010 e
b111001 d
b111000 c
b110111 b
b110110 a
b110101 `
b110100 _
b110011 ^
b110010 ]
b110001 \
b110000 [
b101111 Z
b101110 Y
b101101 X
b101100 W
b101011 V
b101010 U
b101001 T
b101000 S
b100111 R
b100110 Q
b100101 P
b100100 O
b100011 N
b100010 M
b100001 L
b100000 K
b11111 J
b11110 I
b11101 H
b11100 G
b11011 F
b11010 E
b11001 D
b11000 C
b10111 B
b10110 A
b10101 @
b10100 ?
b10011 >
b10010 =
b10001 <
b10000 ;
b1111 :
b1110 9
b1101 8
b1100 7
b1011 6
b1010 5
b1001 4
b1000 3
b111 2
b110 1
b101 0
b100 /
b11 .
b10 -
b1 ,
b0 +
$end
#0
$dumpvars
bx r#
bx q#
b1 p#
b1001000 o#
b0 n#
b0 m#
b0 l#
b0 k#
b0 j#
b0 i#
b0 h#
b0 g#
b0 f#
b0 e#
b0 d#
b0 c#
b0 b#
b0 a#
b0 `#
b0 _#
b0 ^#
b0 ]#
b0 \#
b0 [#
b0 Z#
b0 Y#
b0 X#
b0 W#
b0 V#
b0 U#
b0 T#
b0 S#
b0 R#
b0 Q#
b0 P#
b0 O#
b0 N#
b0 M#
b0 L#
b0 K#
b0 J#
b0 I#
b0 H#
b0 G#
b0 F#
b0 E#
b0 D#
b0 C#
b0 B#
b0 A#
b0 @#
b0 ?#
b0 >#
b0 =#
b0 <#
b0 ;#
b0 :#
b0 9#
b0 8#
b0 7#
b0 6#
b0 5#
b0 4#
b0 3#
b0 2#
b0 1#
b0 0#
b0 /#
b0 .#
b0 -#
b0 ,#
b0 +#
b0 *#
b0 )#
b0 (#
b0 '#
b0 &#
b0 %#
b0 $#
b0 ##
b0 "#
b0 !#
b0 ~"
b0 }"
b0 |"
b0 {"
b0 z"
b0 y"
b0 x"
b0 w"
b0 v"
b0 u"
b0 t"
b0 s"
b0 r"
b0 q"
b0 p"
b0 o"
b0 n"
b0 m"
b0 l"
b0 k"
b0 j"
b0 i"
b0 h"
b0 g"
b0 f"
b0 e"
b0 d"
b0 c"
b0 b"
b0 a"
b100 `"
b1111000 _"
b110111101 ^"
b11011001 ]"
b110111000 \"
b11100001 ["
b111 Z"
b111111111 Y"
b1100000 X"
b101111 W"
b111111111 V"
b1011000 U"
b10010001 T"
b101010011 S"
b10000000 R"
b1011000 Q"
b0 P"
b1010000 O"
b1 N"
b1001000 M"
b0 *
b0 )
b0 (
bx '
0&
0%
b0 $
0#
b0 "
b1001000 !
$end
#1
1%
1#
#2
0#
#3
1#
#4
0#
#5
b1 !
b1 o#
b10 p#
b1 "
b1 (
1#
#6
0#
#7
b1010000 !
b1010000 o#
b100 p#
b10 "
b10 (
1#
#8
0#
#9
b0 !
b0 o#
b1000 p#
b11 "
b11 (
1#
#10
0#
#11
b1011000 !
b1011000 o#
b10000 p#
b100 "
b100 (
1#
#12
0#
#13
b10000000 !
b10000000 o#
b100000 p#
b101 "
b101 (
1#
#14
0#
#15
b101010011 !
b101010011 o#
b1000000 p#
b110 "
b110 (
1#
#16
0#
#17
b10010001 !
b10010001 o#
b10000000 p#
b111 "
b111 (
1#
#18
0#
#19
b1011000 !
b1011000 o#
b100000000 p#
b1000 "
b1000 (
1#
#20
0#
#21
b111111111 !
b111111111 o#
b1000000000 p#
b1001 "
b1001 (
1#
#22
0#
#23
b101111 !
b101111 o#
b10000000000 p#
b1010 "
b1010 (
1#
#24
0#
#25
b1100000 !
b1100000 o#
b100000000000 p#
b1011 "
b1011 (
1#
#26
0#
#27
b111111111 !
b111111111 o#
b1000000000000 p#
b1100 "
b1100 (
1#
#28
0#
#29
b111 !
b111 o#
b10000000000000 p#
b1101 "
b1101 (
1#
#30
0#
#31
b11100001 !
b11100001 o#
b100000000000000 p#
b1110 "
b1110 (
1#
#32
0#
#33
b110111000 !
b110111000 o#
b1000000000000000 p#
b1111 "
b1111 (
1#
#34
0#
#35
b11011001 !
b11011001 o#
b10000000000000000 p#
b10000 "
b10000 (
1#
#36
0#
#37
b110111101 !
b110111101 o#
b100000000000000000 p#
b10001 "
b10001 (
1#
#38
0#
#39
b1111000 !
b1111000 o#
b1000000000000000000 p#
b10010 "
b10010 (
1#
#40
0#
#41
b100 !
b100 o#
b10000000000000000000 p#
b10011 "
b10011 (
1#
#42
0#
#43
0%
1#
#44
1%
0#
#45
b100100100 r#
b1110 q#
b1110 '
1#
#46
0#
#47
b11100001 !
b11100001 o#
b100000000000000 p#
b100000000000000 *
b100100100 $
b100100100 )
b1110 "
b1110 (
1&
1#
#48
0#
#49
b100100100 !
b100100100 o#
b100100100 ["
1#
#50
0#
#51
b0 *
b10000001 r#
b1111 q#
b1111 '
0&
1#
#52
0#
#53
b110111000 !
b110111000 o#
b1000000000000000 p#
b1000000000000000 *
b10000001 $
b10000001 )
b1111 "
b1111 (
1&
1#
#54
0#
#55
b10000001 !
b10000001 o#
b10000001 \"
1#
#56
0#
#57
b0 *
b1001 r#
b10000 q#
b10000 '
0&
1#
#58
0#
#59
b11011001 !
b11011001 o#
b10000000000000000 p#
b10000000000000000 *
b1001 $
b1001 )
b10000 "
b10000 (
1&
1#
#60
0#
#61
b1001 !
b1001 o#
b1001 ]"
1#
#62
0#
#63
b0 *
b1100011 r#
b10001 q#
b10001 '
0&
1#
#64
0#
#65
b110111101 !
b110111101 o#
b100000000000000000 p#
b100000000000000000 *
b1100011 $
b1100011 )
b10001 "
b10001 (
1&
1#
#66
0#
#67
b1100011 !
b1100011 o#
b1100011 ^"
1#
#68
0#
#69
b0 *
b100001101 r#
b10010 q#
b10010 '
0&
1#
#70
0#
#71
b1111000 !
b1111000 o#
b1000000000000000000 p#
b1000000000000000000 *
b100001101 $
b100001101 )
b10010 "
b10010 (
1&
1#
#72
0#
#73
b100001101 !
b100001101 o#
b100001101 _"
1#
#74
0#
#75
b0 *
b110001101 r#
b10011 q#
b10011 '
0&
1#
#76
0#
#77
b100 !
b100 o#
b10000000000000000000 p#
b10000000000000000000 *
b110001101 $
b110001101 )
b10011 "
b10011 (
1&
1#
#78
0#
#79
b110001101 !
b110001101 o#
b110001101 `"
1#
#80
0#
#81
b0 *
b1100101 r#
b10100 q#
b10100 '
0&
1#
#82
0#
#83
b0 !
b0 o#
b100000000000000000000 p#
b100000000000000000000 *
b1100101 $
b1100101 )
b10100 "
b10100 (
1&
1#
#84
0#
#85
b1100101 !
b1100101 o#
b1100101 a"
1#
#86
0#
#87
b0 *
b10010 r#
b10101 q#
b10101 '
0&
1#
#88
0#
#89
b0 !
b0 o#
b1000000000000000000000 p#
b1000000000000000000000 *
b10010 $
b10010 )
b10101 "
b10101 (
1&
1#
#90
0#
#91
b10010 !
b10010 o#
b10010 b"
1#
#92
0#
#93
b0 *
b100000001 r#
b10110 q#
b10110 '
0&
1#
#94
0#
#95
b0 !
b0 o#
b10000000000000000000000 p#
b10000000000000000000000 *
b100000001 $
b100000001 )
b10110 "
b10110 (
1&
1#
#96
0#
#97
b100000001 !
b100000001 o#
b100000001 c"
1#
#98
0#
#99
b0 *
b100001101 r#
b10111 q#
b10111 '
0&
1#
#100
0#
#101
b0 !
b0 o#
b100000000000000000000000 p#
b100000000000000000000000 *
b100001101 $
b100001101 )
b10111 "
b10111 (
1&
1#
#102
0#
#103
b100001101 !
b100001101 o#
b100001101 d"
1#
#104
0#
#105
b0 *
b101110110 r#
b11000 q#
b11000 '
0&
1#
#106
0#
#107
b0 !
b0 o#
b1000000000000000000000000 p#
b1000000000000000000000000 *
b101110110 $
b101110110 )
b11000 "
b11000 (
1&
1#
#108
0#
#109
b101110110 !
b101110110 o#
b101110110 e"
1#
#110
0#
#111
b0 *
b100111101 r#
b11001 q#
b11001 '
0&
1#
#112
0#
#113
b0 !
b0 o#
b10000000000000000000000000 p#
b10000000000000000000000000 *
b100111101 $
b100111101 )
b11001 "
b11001 (
1&
1#
#114
0#
#115
b100111101 !
b100111101 o#
b100111101 f"
1#
#116
0#
#117
b0 *
b111101101 r#
b11010 q#
b11010 '
0&
1#
#118
0#
#119
b0 !
b0 o#
b100000000000000000000000000 p#
b100000000000000000000000000 *
b111101101 $
b111101101 )
b11010 "
b11010 (
1&
1#
#120
0#
#121
b111101101 !
b111101101 o#
b111101101 g"
1#
#122
0#
#123
b0 *
b110001100 r#
b11011 q#
b11011 '
0&
1#
#124
0#
#125
b0 !
b0 o#
b1000000000000000000000000000 p#
b1000000000000000000000000000 *
b110001100 $
b110001100 )
b11011 "
b11011 (
1&
1#
#126
0#
#127
b110001100 !
b110001100 o#
b110001100 h"
1#
#128
0#
#129
b0 *
b111111001 r#
b11100 q#
b11100 '
0&
1#
#130
0#
#131
b0 !
b0 o#
b10000000000000000000000000000 p#
b10000000000000000000000000000 *
b111111001 $
b111111001 )
b11100 "
b11100 (
1&
1#
#132
0#
#133
b111111001 !
b111111001 o#
b111111001 i"
1#
#134
0#
#135
b0 *
b11000110 r#
b11101 q#
b11101 '
0&
1#
#136
0#
#137
b0 !
b0 o#
b100000000000000000000000000000 p#
b100000000000000000000000000000 *
b11000110 $
b11000110 )
b11101 "
b11101 (
1&
1#
#138
0#
#139
b11000110 !
b11000110 o#
b11000110 j"
1#
#140
0#
#141
b0 *
b11000101 r#
b11110 q#
b11110 '
0&
1#
#142
0#
#143
b0 !
b0 o#
b1000000000000000000000000000000 p#
b1000000000000000000000000000000 *
b11000101 $
b11000101 )
b11110 "
b11110 (
1&
1#
#144
0#
#145
b11000101 !
b11000101 o#
b11000101 k"
1#
#146
0#
#147
b0 *
b10101010 r#
b11111 q#
b11111 '
0&
1#
#148
0#
#149
b0 !
b0 o#
b10000000000000000000000000000000 p#
b10000000000000000000000000000000 *
b10101010 $
b10101010 )
b11111 "
b11111 (
1&
1#
#150
0#
#151
b10101010 !
b10101010 o#
b10101010 l"
1#
#152
0#
#153
b0 *
b111100101 r#
b100000 q#
b100000 '
0&
1#
#154
0#
#155
b0 !
b0 o#
b100000000000000000000000000000000 p#
b100000000000000000000000000000000 *
b111100101 $
b111100101 )
b100000 "
b100000 (
1&
1#
#156
0#
#157
b111100101 !
b111100101 o#
b111100101 m"
1#
#158
0#
#159
b0 *
b1110111 r#
b100001 q#
b100001 '
0&
1#
#160
0#
#161
b0 !
b0 o#
b1000000000000000000000000000000000 p#
b1000000000000000000000000000000000 *
b1110111 $
b1110111 )
b100001 "
b100001 (
1&
1#
#162
0#
#163
b1110111 !
b1110111 o#
b1110111 n"
1#
#164
0#
#165
b0 *
b10010 r#
b100010 q#
b100010 '
0&
1#
#166
0#
#167
b0 !
b0 o#
b10000000000000000000000000000000000 p#
b10000000000000000000000000000000000 *
b10010 $
b10010 )
b100010 "
b100010 (
1&
1#
#168
0#
#169
b10010 !
b10010 o#
b10010 o"
1#
#170
0#
#171
b0 *
b110001111 r#
b100011 q#
b100011 '
0&
1#
#172
0#
#173
b0 !
b0 o#
b100000000000000000000000000000000000 p#
b100000000000000000000000000000000000 *
b110001111 $
b110001111 )
b100011 "
b100011 (
1&
1#
#174
0#
#175
b110001111 !
b110001111 o#
b110001111 p"
1#
#176
0#
#177
b0 *
b111110010 r#
b100100 q#
b100100 '
0&
1#
#178
0#
#179
b0 !
b0 o#
b1000000000000000000000000000000000000 p#
b1000000000000000000000000000000000000 *
b111110010 $
b111110010 )
b100100 "
b100100 (
1&
1#
#180
0#
#181
b111110010 !
b111110010 o#
b111110010 q"
1#
#182
0#
#183
b0 *
b11001110 r#
b100101 q#
b100101 '
0&
1#
#184
0#
#185
b0 !
b0 o#
b10000000000000000000000000000000000000 p#
b10000000000000000000000000000000000000 *
b11001110 $
b11001110 )
b100101 "
b100101 (
1&
1#
#186
0#
#187
b11001110 !
b11001110 o#
b11001110 r"
1#
#188
0#
#189
b0 *
b11101000 r#
b100110 q#
b100110 '
0&
1#
#190
0#
#191
b0 !
b0 o#
b100000000000000000000000000000000000000 p#
b100000000000000000000000000000000000000 *
b11101000 $
b11101000 )
b100110 "
b100110 (
1&
1#
#192
0#
#193
b11101000 !
b11101000 o#
b11101000 s"
1#
#194
0#
#195
b0 *
b11000101 r#
b100111 q#
b100111 '
0&
1#
#196
0#
#197
b0 !
b0 o#
b1000000000000000000000000000000000000000 p#
b1000000000000000000000000000000000000000 *
b11000101 $
b11000101 )
b100111 "
b100111 (
1&
1#
#198
0#
#199
b11000101 !
b11000101 o#
b11000101 t"
1#
#200
0#
#201
b0 *
b101011100 r#
b101000 q#
b101000 '
0&
1#
#202
0#
#203
b0 !
b0 o#
b10000000000000000000000000000000000000000 p#
b10000000000000000000000000000000000000000 *
b101011100 $
b101011100 )
b101000 "
b101000 (
1&
1#
#204
0#
#205
b101011100 !
b101011100 o#
b101011100 u"
1#
#206
0#
#207
b0 *
b10111101 r#
b101001 q#
b101001 '
0&
1#
#208
0#
#209
b0 !
b0 o#
b100000000000000000000000000000000000000000 p#
b100000000000000000000000000000000000000000 *
b10111101 $
b10111101 )
b101001 "
b101001 (
1&
1#
#210
0#
#211
b10111101 !
b10111101 o#
b10111101 v"
1#
#212
0#
#213
b0 *
b101101 r#
b101010 q#
b101010 '
0&
1#
#214
0#
#215
b0 !
b0 o#
b1000000000000000000000000000000000000000000 p#
b1000000000000000000000000000000000000000000 *
b101101 $
b101101 )
b101010 "
b101010 (
1&
1#
#216
0#
#217
b101101 !
b101101 o#
b101101 w"
1#
#218
0#
#219
b0 *
b1100101 r#
b101011 q#
b101011 '
0&
1#
#220
0#
#221
b0 !
b0 o#
b10000000000000000000000000000000000000000000 p#
b10000000000000000000000000000000000000000000 *
b1100101 $
b1100101 )
b101011 "
b101011 (
1&
1#
#222
0#
#223
b1100101 !
b1100101 o#
b1100101 x"
1#
#224
0#
#225
b0 *
b1100011 r#
b101100 q#
b101100 '
0&
1#
#226
0#
#227
b0 !
b0 o#
b100000000000000000000000000000000000000000000 p#
b100000000000000000000000000000000000000000000 *
b1100011 $
b1100011 )
b101100 "
b101100 (
1&
1#
#228
0#
#229
b1100011 !
b1100011 o#
b1100011 y"
1#
#230
0#
#231
b0 *
b100001010 r#
b101101 q#
b101101 '
0&
1#
#232
0#
#233
b0 !
b0 o#
b1000000000000000000000000000000000000000000000 p#
b1000000000000000000000000000000000000000000000 *
b100001010 $
b100001010 )
b101101 "
b101101 (
1&
1#
#234
0#
#235
b100001010 !
b100001010 o#
b100001010 z"
1#
#236
0#
#237
b0 *
b10000000 r#
b101110 q#
b101110 '
0&
1#
#238
0#
#239
b0 !
b0 o#
b10000000000000000000000000000000000000000000000 p#
b10000000000000000000000000000000000000000000000 *
b10000000 $
b10000000 )
b101110 "
b101110 (
1&
1#
#240
0#
#241
b10000000 !
b10000000 o#
b10000000 {"
1#
#242
0#
#243
b0 *
b100100000 r#
b101111 q#
b101111 '
0&
1#
#244
0#
#245
b0 !
b0 o#
b100000000000000000000000000000000000000000000000 p#
b100000000000000000000000000000000000000000000000 *
b100100000 $
b100100000 )
b101111 "
b101111 (
1&
1#
#246
0#
#247
b100100000 !
b100100000 o#
b100100000 |"
1#
#248
0#
#249
b0 *
b110101010 r#
b110000 q#
b110000 '
0&
1#
#250
0#
#251
b0 !
b0 o#
b1000000000000000000000000000000000000000000000000 p#
b1000000000000000000000000000000000000000000000000 *
b110101010 $
b110101010 )
b110000 "
b110000 (
1&
1#
#252
0#
#253
b110101010 !
b110101010 o#
b110101010 }"
1#
#254
0#
#255
b0 *
b10011101 r#
b110001 q#
b110001 '
0&
1#
#256
0#
#257
b0 !
b0 o#
b10000000000000000000000000000000000000000000000000 p#
b10000000000000000000000000000000000000000000000000 *
b10011101 $
b10011101 )
b110001 "
b110001 (
1&
1#
#258
0#
#259
b10011101 !
b10011101 o#
b10011101 ~"
1#
#260
0#
#261
b0 *
b10010110 r#
b110010 q#
b110010 '
0&
1#
#262
0#
#263
b0 !
b0 o#
b100000000000000000000000000000000000000000000000000 p#
b100000000000000000000000000000000000000000000000000 *
b10010110 $
b10010110 )
b110010 "
b110010 (
1&
1#
#264
0#
#265
b10010110 !
b10010110 o#
b10010110 !#
1#
#266
0#
#267
b0 *
b10011 r#
b110011 q#
b110011 '
0&
1#
#268
0#
#269
b0 !
b0 o#
b1000000000000000000000000000000000000000000000000000 p#
b1000000000000000000000000000000000000000000000000000 *
b10011 $
b10011 )
b110011 "
b110011 (
1&
1#
#270
0#
#271
b10011 !
b10011 o#
b10011 "#
1#
#272
0#
#273
b0 *
b1101 r#
b110100 q#
b110100 '
0&
1#
#274
0#
#275
b0 !
b0 o#
b10000000000000000000000000000000000000000000000000000 p#
b10000000000000000000000000000000000000000000000000000 *
b1101 $
b1101 )
b110100 "
b110100 (
1&
1#
#276
0#
#277
b1101 !
b1101 o#
b1101 ##
1#
#278
0#
#279
b0 *
b1010011 r#
b110101 q#
b110101 '
0&
1#
#280
0#
#281
b0 !
b0 o#
b100000000000000000000000000000000000000000000000000000 p#
b100000000000000000000000000000000000000000000000000000 *
b1010011 $
b1010011 )
b110101 "
b110101 (
1&
1#
#282
0#
#283
b1010011 !
b1010011 o#
b1010011 $#
1#
#284
0#
#285
b0 *
b101101011 r#
b110110 q#
b110110 '
0&
1#
#286
0#
